{
  "metadataConfiguration": {
    "changeDataCaptureAttribute": "CDC_OPERATION",
    "recordSourceAttribute": "RECORD_SOURCE",
    "loadDateTimeAttribute": "LOAD_DATETIME",
    "expiryDateTimeAttribute": "LOAD_END_DATETIME",
    "eventDateTimeAttribute": "EVENT_DATETIME",
    "recordChecksumAttribute": "HASH_FULL_RECORD",
    "etlProcessAttribute": "MODULE_INSTANCE_ID",
    "sourceRowIdAttribute": "SOURCE_ROW_ID"
  },
  "generationSpecificMetadata": {
    "selectedDataObject": {
      "name": "LNK_RENEWAL_MEMBERSHIP",
      "dataObjectConnection": {
        "dataConnectionString": "Integration",
        "extensions": [
          {
            "key": "database",
            "value": "VirtualDWH",
            "description": "database name"
          },
          {
            "key": "schema",
            "value": "dbo",
            "description": "schema name"
          }
        ]
      },
      "dataObjectClassifications": [
        {
          "classification": "NaturalBusinessRelationship"
        }
      ]
    }
  },
  "dataObjectMappings": [
    {
      "mappingName": "LNK_RENEWAL_MEMBERSHIP",
      "mappingClassifications": [
        {
          "classification": "NaturalBusinessRelationship"
        }
      ],
      "sourceDataObjects": [
        {
          "name": "PSA_PROFILER_PLAN",
          "dataObjectConnection": {
            "dataConnectionString": "PSA",
            "extensions": [
              {
                "key": "database",
                "value": "VirtualDWH",
                "description": "database name"
              },
              {
                "key": "schema",
                "value": "dbo",
                "description": "schema name"
              }
            ]
          },
          "dataObjectClassifications": [
            {
              "classification": "PersistentStagingArea"
            }
          ]
        }
      ],
      "targetDataObject": {
        "name": "LNK_RENEWAL_MEMBERSHIP",
        "dataObjectConnection": {
          "dataConnectionString": "Integration",
          "extensions": [
            {
              "key": "database",
              "value": "VirtualDWH",
              "description": "database name"
            },
            {
              "key": "schema",
              "value": "dbo",
              "description": "schema name"
            }
          ]
        },
        "dataObjectClassifications": [
          {
            "classification": "NaturalBusinessRelationship"
          }
        ]
      },
      "businessKeys": [
        {
          "businessKeyComponentMapping": [
            {
              "sourceDataItems": [
                {
                  "name": "Plan_Code",
                  "isHardCodedValue": false
                }
              ],
              "targetDataItem": {
                "name": "PLAN_CODE"
              }
            },
            {
              "sourceDataItems": [
                {
                  "name": "'XYZ'",
                  "isHardCodedValue": true
                }
              ],
              "targetDataItem": {
                "name": "PLAN_SUFFIX"
              }
            },
            {
              "sourceDataItems": [
                {
                  "name": "Renewal_Plan_Code",
                  "isHardCodedValue": false
                }
              ],
              "targetDataItem": {
                "name": "PLAN_CODE"
              }
            },
            {
              "sourceDataItems": [
                {
                  "name": "'XYZ'",
                  "isHardCodedValue": true
                }
              ],
              "targetDataItem": {
                "name": "PLAN_SUFFIX"
              }
            }
          ],
          "surrogateKey": "RENEWAL_MEMBERSHIP_SK"
        },
        {
          "businessKeyComponentMapping": [
            {
              "sourceDataItems": [
                {
                  "name": "Plan_Code",
                  "isHardCodedValue": false
                }
              ],
              "targetDataItem": {
                "name": "PLAN_CODE"
              }
            },
            {
              "sourceDataItems": [
                {
                  "name": "'XYZ'",
                  "isHardCodedValue": true
                }
              ],
              "targetDataItem": {
                "name": "PLAN_SUFFIX"
              }
            }
          ],
          "surrogateKey": "MEMBERSHIP_PLAN_SK"
        },
        {
          "businessKeyComponentMapping": [
            {
              "sourceDataItems": [
                {
                  "name": "Renewal_Plan_Code",
                  "isHardCodedValue": false
                }
              ],
              "targetDataItem": {
                "name": "PLAN_CODE"
              }
            },
            {
              "sourceDataItems": [
                {
                  "name": "'XYZ'",
                  "isHardCodedValue": true
                }
              ],
              "targetDataItem": {
                "name": "PLAN_SUFFIX"
              }
            }
          ],
          "surrogateKey": "RENEWAL_PLAN_SK"
        }
      ],
      "filterCriterion": "",
      "enabled": true
    }
  ]
}