{
  "metadataConfiguration": {
    "changeDataCaptureAttribute": "CDC_OPERATION",
    "recordSourceAttribute": "RECORD_SOURCE",
    "loadDateTimeAttribute": "LOAD_DATETIME",
    "expiryDateTimeAttribute": "LOAD_END_DATETIME",
    "eventDateTimeAttribute": "EVENT_DATETIME",
    "recordChecksumAttribute": "HASH_FULL_RECORD",
    "etlProcessAttribute": "MODULE_INSTANCE_ID",
    "sourceRowIdAttribute": "SOURCE_ROW_ID"
  },
  "generationSpecificMetadata": {
    "selectedDataObject": {
      "name": "STG_PROFILER_CUSTOMER_OFFER",
      "dataObjectConnection": {
        "dataConnectionString": "Staging",
        "extensions": [
          {
            "key": "database",
            "value": "VirtualDWH",
            "description": "database name"
          },
          {
            "key": "schema",
            "value": "dbo",
            "description": "schema name"
          }
        ]
      },
      "dataObjectClassifications": [
        {
          "classification": "StagingArea"
        }
      ]
    }
  },
  "dataObjectMappings": [
    {
      "mappingName": "STG_PROFILER_CUSTOMER_OFFER",
      "mappingClassifications": [
        {
          "classification": "StagingArea"
        }
      ],
      "sourceDataObjects": [
        {
          "name": "CUSTOMER_OFFER",
          "dataObjectConnection": {
            "dataConnectionString": "Source",
            "extensions": [
              {
                "key": "database",
                "value": "000_Source",
                "description": "database name"
              },
              {
                "key": "schema",
                "value": "dbo",
                "description": "schema name"
              }
            ]
          },
          "dataObjectClassifications": [
            {
              "classification": "Source"
            }
          ]
        }
      ],
      "targetDataObject": {
        "name": "STG_PROFILER_CUSTOMER_OFFER",
        "dataObjectConnection": {
          "dataConnectionString": "Staging",
          "extensions": [
            {
              "key": "database",
              "value": "VirtualDWH",
              "description": "database name"
            },
            {
              "key": "schema",
              "value": "dbo",
              "description": "schema name"
            }
          ]
        },
        "dataObjectClassifications": [
          {
            "classification": "StagingArea"
          }
        ]
      },
      "relatedDataObjects": [
        {
          "name": "PSA_PROFILER_CUSTOMER_OFFER",
          "dataObjectConnection": {
            "dataConnectionString": "PSA",
            "extensions": [
              {
                "key": "database",
                "value": "150_Persistent_Staging_Area",
                "description": "database name"
              },
              {
                "key": "schema",
                "value": "dbo",
                "description": "schema name"
              }
            ]
          },
          "dataObjectClassifications": [
            {
              "classification": "PersistentStagingArea"
            }
          ]
        }
      ],
      "dataItemMappings": [
        {
          "sourceDataItems": [
            {
              "name": "CustomerID"
            }
          ],
          "targetDataItem": {
            "name": "CustomerID"
          }
        },
        {
          "sourceDataItems": [
            {
              "name": "OfferID"
            }
          ],
          "targetDataItem": {
            "name": "OfferID"
          }
        }
      ],
      "businessKeys": [
        {
          "businessKeyComponentMapping": [
            {
              "sourceDataItems": [
                {
                  "name": "CustomerID",
                  "isHardCodedValue": false
                }
              ],
              "targetDataItem": {
                "name": "CustomerID"
              }
            },
            {
              "sourceDataItems": [
                {
                  "name": "OfferID",
                  "isHardCodedValue": false
                }
              ],
              "targetDataItem": {
                "name": "OfferID"
              }
            }
          ],
          "surrogateKey": "PROFILER_CUSTOMER_OFFER_SK"
        }
      ],
      "filterCriterion": "",
      "enabled": true
    }
  ]
}